<svg xmlns="http://www.w3.org/2000/svg" width="29" height="20" viewBox="0 0 29 20">
  <defs>
    <style>
      .cls-1 {
        fill: #f0473f;
        fill-rule: evenodd;
      }
    </style>
  </defs>
  <path id="letter.svg" class="cls-1" d="M82.48,713.446a0.473,0.473,0,0,1-.32-0.123l-5.381-4.9a0.443,0.443,0,0,1-.02-0.64,0.474,0.474,0,0,1,.661-0.02l5.381,4.9a0.444,0.444,0,0,1,.021.641A0.474,0.474,0,0,1,82.48,713.446Zm-17.961,0a0.475,0.475,0,0,1-.341-0.143,0.444,0.444,0,0,1,.02-0.641l5.383-4.9a0.477,0.477,0,0,1,.661.02,0.443,0.443,0,0,1-.021.64l-5.383,4.9A0.473,0.473,0,0,1,64.519,713.446ZM85.662,718H61.337A2.306,2.306,0,0,1,59,715.732V700.265A2.306,2.306,0,0,1,61.337,698H85.662A2.306,2.306,0,0,1,88,700.265v15.467A2.306,2.306,0,0,1,85.662,718ZM61.337,698.9a1.384,1.384,0,0,0-1.4,1.361v15.467a1.384,1.384,0,0,0,1.4,1.361H85.662a1.384,1.384,0,0,0,1.4-1.361V700.265a1.384,1.384,0,0,0-1.4-1.361H61.337ZM73.5,710.278a2.665,2.665,0,0,1-1.717-.6L59.776,699.514a0.445,0.445,0,0,1-.046-0.64,0.481,0.481,0,0,1,.66-0.044L72.4,708.992a1.79,1.79,0,0,0,2.2,0l11.992-10.145a0.478,0.478,0,0,1,.66.043,0.446,0.446,0,0,1-.045.641L75.217,709.676A2.662,2.662,0,0,1,73.5,710.278Z" transform="translate(-59 -698)"/>
</svg>
