<svg xmlns="http://www.w3.org/2000/svg" width="27.312" height="24.68" viewBox="0 0 27.312 24.68">
  <defs>
    <style>
      .cls-1 {
        fill: #5a9ee8;
        fill-rule: evenodd;
      }
    </style>
  </defs>
  <path id="participant-3.svg" class="cls-1" d="M699.909,5935.43l-19.918,11.5a0.48,0.48,0,0,0-.171.7L683.5,5954a2.542,2.542,0,0,0,3.478,1.02l16.454-9.5a2.536,2.536,0,0,0,.853-3.52l-3.675-6.37A0.486,0.486,0,0,0,699.909,5935.43Zm-15.22,13.64,3.464-2a0.484,0.484,0,0,1,.695.2,0.49,0.49,0,0,1-.17.71l-3.464,2a0.489,0.489,0,0,1-.7-0.21A0.48,0.48,0,0,1,684.689,5949.07Zm7.637-.78-6.062,3.5a0.486,0.486,0,0,1-.7-0.2,0.479,0.479,0,0,1,.171-0.7l6.062-3.5a0.484,0.484,0,0,1,.695.2A0.479,0.479,0,0,1,692.326,5948.29Zm7.361-4.25a1.757,1.757,0,0,0-1.732,1,2.1,2.1,0,0,1-2.1-3.63,1.755,1.755,0,0,0,1.732-1A2.1,2.1,0,0,1,699.687,5944.04Zm-4.66-13.07-16.454,9.5a2.546,2.546,0,0,0-.853,3.53l0.525,0.91a0.486,0.486,0,0,0,.7.2l19.918-11.5a0.48,0.48,0,0,0,.171-0.7l-0.525-.91A2.537,2.537,0,0,0,695.027,5930.97Z" transform="translate(-677.344 -5930.66)"/>
</svg>
