<?xml version="1.0" encoding="iso-8859-1"?>
<!-- Generator: Adobe Illustrator 22.0.1, SVG Export Plug-In . SVG Version: 6.00 Build 0)  -->
<svg version="1.1" id="Layer_1" xmlns="http://www.w3.org/2000/svg" xmlns:xlink="http://www.w3.org/1999/xlink" x="0px" y="0px"
	 viewBox="0 0 39.25 37.655" style="enable-background:new 0 0 39.25 37.655;" xml:space="preserve">
<g>
	<g>
		<g>
			<path d="M10.414,6.008h-4.81c-0.276,0-0.5-0.224-0.5-0.5s0.224-0.5,0.5-0.5h4.81c0.276,0,0.5,0.224,0.5,0.5
				S10.69,6.008,10.414,6.008z"/>
		</g>
		<g>
			<path d="M13.884,7.984H8.149c-0.276,0-0.5-0.224-0.5-0.5s0.224-0.5,0.5-0.5h5.735c0.276,0,0.5,0.224,0.5,0.5
				S14.161,7.984,13.884,7.984z"/>
		</g>
		<g>
			<path d="M13.884,6.008h-2.058c-0.276,0-0.5-0.224-0.5-0.5s0.224-0.5,0.5-0.5h2.058c0.276,0,0.5,0.224,0.5,0.5
				S14.161,6.008,13.884,6.008z"/>
		</g>
		<g>
			<path d="M10.414,9.96h-4.81c-0.276,0-0.5-0.224-0.5-0.5s0.224-0.5,0.5-0.5h4.81c0.276,0,0.5,0.224,0.5,0.5
				S10.69,9.96,10.414,9.96z"/>
		</g>
		<g>
			<path d="M13.884,11.952H5.633c-0.276,0-0.5-0.224-0.5-0.5s0.224-0.5,0.5-0.5h8.251c0.276,0,0.5,0.224,0.5,0.5
				S14.161,11.952,13.884,11.952z"/>
		</g>
		<g>
			<path d="M13.884,9.96h-2.058c-0.276,0-0.5-0.224-0.5-0.5s0.224-0.5,0.5-0.5h2.058c0.276,0,0.5,0.224,0.5,0.5
				S14.161,9.96,13.884,9.96z"/>
		</g>
		<g>
			<path d="M13.542,14.406H2.392c-0.021,0-0.042-0.001-0.063-0.004C1.097,14.471,0,13.465,0,12.209V0.5C0,0.224,0.224,0,0.5,0h11.44
				c0.276,0,0.5,0.224,0.5,0.5v2.123h3.177c0.276,0,0.5,0.224,0.5,0.5v8.708C16.118,13.251,14.962,14.406,13.542,14.406z
				 M4.038,13.406h9.504c0.869,0,1.576-0.707,1.576-1.575V3.623H4.394v8.587C4.394,12.65,4.263,13.062,4.038,13.406z M1,1v11.209
				c0,0.66,0.537,1.197,1.197,1.197s1.197-0.537,1.197-1.197V3.123c0-0.276,0.224-0.5,0.5-0.5h7.547V1H1z"/>
		</g>
		<g>
			<path d="M6.804,7.984H5.672c-0.276,0-0.5-0.224-0.5-0.5s0.224-0.5,0.5-0.5h1.132c0.276,0,0.5,0.224,0.5,0.5
				S7.08,7.984,6.804,7.984z"/>
		</g>
	</g>
	<g>
		<g>
			<path style="fill:#A7A8AC;" d="M35.073,0.5v2.619H27.03v9.089c0,0.935-0.759,1.694-1.703,1.694c-0.935,0-1.694-0.759-1.694-1.694
				V0.5H35.073z"/>
			<path d="M25.327,14.402c-1.209,0-2.194-0.984-2.194-2.194V0.5c0-0.276,0.224-0.5,0.5-0.5h11.44c0.276,0,0.5,0.224,0.5,0.5v2.62
				c0,0.276-0.224,0.5-0.5,0.5H27.53v8.589C27.53,13.418,26.542,14.402,25.327,14.402z M24.133,1v11.208
				c0,0.658,0.536,1.194,1.194,1.194c0.664,0,1.203-0.536,1.203-1.194V3.12c0-0.276,0.224-0.5,0.5-0.5h7.543V1H24.133z"/>
		</g>
		<g>
			<path d="M36.674,14.402H25.521c-0.276,0-0.5-0.224-0.5-0.5s0.224-0.5,0.5-0.5h11.153c0.868,0,1.573-0.706,1.573-1.573V3.62
				h-3.174c-0.276,0-0.5-0.224-0.5-0.5s0.224-0.5,0.5-0.5h3.674c0.276,0,0.5,0.224,0.5,0.5v8.709
				C39.247,13.248,38.093,14.402,36.674,14.402z"/>
		</g>
		<g>
			<path d="M37.023,11.952h-4.81c-0.276,0-0.5-0.224-0.5-0.5s0.224-0.5,0.5-0.5h4.81c0.276,0,0.5,0.224,0.5,0.5
				S37.3,11.952,37.023,11.952z"/>
		</g>
		<g>
			<path d="M34.478,9.976h-5.735c-0.276,0-0.5-0.224-0.5-0.5s0.224-0.5,0.5-0.5h5.735c0.276,0,0.5,0.224,0.5,0.5
				S34.754,9.976,34.478,9.976z"/>
		</g>
		<g>
			<path d="M30.801,11.952h-2.058c-0.276,0-0.5-0.224-0.5-0.5s0.224-0.5,0.5-0.5h2.058c0.276,0,0.5,0.224,0.5,0.5
				S31.077,11.952,30.801,11.952z"/>
		</g>
		<g>
			<path d="M37.023,7.999h-4.81c-0.276,0-0.5-0.224-0.5-0.5s0.224-0.5,0.5-0.5h4.81c0.276,0,0.5,0.224,0.5,0.5
				S37.3,7.999,37.023,7.999z"/>
		</g>
		<g>
			<path d="M36.995,6.008h-8.251c-0.276,0-0.5-0.224-0.5-0.5s0.224-0.5,0.5-0.5h8.251c0.276,0,0.5,0.224,0.5,0.5
				S37.271,6.008,36.995,6.008z"/>
		</g>
		<g>
			<path d="M30.801,7.999h-2.058c-0.276,0-0.5-0.224-0.5-0.5s0.224-0.5,0.5-0.5h2.058c0.276,0,0.5,0.224,0.5,0.5
				S31.077,7.999,30.801,7.999z"/>
		</g>
		<g>
			<path d="M36.956,9.976h-1.132c-0.276,0-0.5-0.224-0.5-0.5s0.224-0.5,0.5-0.5h1.132c0.276,0,0.5,0.224,0.5,0.5
				S37.232,9.976,36.956,9.976z"/>
		</g>
	</g>
	<g>
		<g>
			<path style="fill:#ED473E;" d="M11.943,23.75v2.619H3.891v9.089c0,0.935-0.759,1.694-1.694,1.694s-1.694-0.759-1.694-1.694V23.75
				H11.943z"/>
			<path d="M2.197,37.652c-1.209,0-2.194-0.984-2.194-2.193V23.75c0-0.276,0.224-0.5,0.5-0.5h11.44c0.276,0,0.5,0.224,0.5,0.5v2.619
				c0,0.276-0.224,0.5-0.5,0.5H4.391v8.589C4.391,36.667,3.406,37.652,2.197,37.652z M1.003,24.25v11.208
				c0,0.658,0.536,1.193,1.194,1.193s1.194-0.535,1.194-1.193V26.37c0-0.276,0.224-0.5,0.5-0.5h7.552V24.25H1.003z"/>
		</g>
		<g>
			<path d="M13.544,37.652H2.391c-0.276,0-0.5-0.224-0.5-0.5s0.224-0.5,0.5-0.5h11.153c0.868,0,1.573-0.706,1.573-1.573V26.87
				h-3.175c-0.276,0-0.5-0.224-0.5-0.5s0.224-0.5,0.5-0.5h3.675c0.276,0,0.5,0.224,0.5,0.5v8.709
				C16.118,36.498,14.963,37.652,13.544,37.652z"/>
		</g>
		<g>
			<path d="M10.414,29.078h-4.81c-0.276,0-0.5-0.224-0.5-0.5s0.224-0.5,0.5-0.5h4.81c0.276,0,0.5,0.224,0.5,0.5
				S10.69,29.078,10.414,29.078z"/>
		</g>
		<g>
			<path d="M13.884,31.054H8.149c-0.276,0-0.5-0.224-0.5-0.5s0.224-0.5,0.5-0.5h5.735c0.276,0,0.5,0.224,0.5,0.5
				S14.161,31.054,13.884,31.054z"/>
		</g>
		<g>
			<path d="M13.884,29.078h-2.058c-0.276,0-0.5-0.224-0.5-0.5s0.224-0.5,0.5-0.5h2.058c0.276,0,0.5,0.224,0.5,0.5
				S14.161,29.078,13.884,29.078z"/>
		</g>
		<g>
			<path d="M10.414,33.031h-4.81c-0.276,0-0.5-0.224-0.5-0.5s0.224-0.5,0.5-0.5h4.81c0.276,0,0.5,0.224,0.5,0.5
				S10.69,33.031,10.414,33.031z"/>
		</g>
		<g>
			<path d="M13.884,35.022H5.633c-0.276,0-0.5-0.224-0.5-0.5s0.224-0.5,0.5-0.5h8.251c0.276,0,0.5,0.224,0.5,0.5
				S14.161,35.022,13.884,35.022z"/>
		</g>
		<g>
			<path d="M13.884,33.031h-2.058c-0.276,0-0.5-0.224-0.5-0.5s0.224-0.5,0.5-0.5h2.058c0.276,0,0.5,0.224,0.5,0.5
				S14.161,33.031,13.884,33.031z"/>
		</g>
		<g>
			<path d="M6.804,31.054H5.672c-0.276,0-0.5-0.224-0.5-0.5s0.224-0.5,0.5-0.5h1.132c0.276,0,0.5,0.224,0.5,0.5
				S7.08,31.054,6.804,31.054z"/>
		</g>
	</g>
	<g>
		<g>
			<path d="M36.675,37.655H25.524c-0.021,0-0.042-0.001-0.062-0.004c-1.249,0.074-2.329-0.938-2.329-2.192v-11.71
				c0-0.276,0.224-0.5,0.5-0.5h11.44c0.276,0,0.5,0.224,0.5,0.5v2.123h3.177c0.276,0,0.5,0.224,0.5,0.5v8.708
				C39.25,36.5,38.095,37.655,36.675,37.655z M27.171,36.655h9.503c0.869,0,1.575-0.707,1.575-1.575v-8.208H27.526v8.587
				C27.526,35.899,27.396,36.31,27.171,36.655z M24.132,24.249v11.21c0,0.659,0.537,1.196,1.197,1.196
				c0.66,0,1.197-0.537,1.197-1.196v-9.087c0-0.276,0.224-0.5,0.5-0.5h7.546v-1.623H24.132z"/>
		</g>
		<g>
			<path d="M37.023,35.022h-4.81c-0.276,0-0.5-0.224-0.5-0.5s0.224-0.5,0.5-0.5h4.81c0.276,0,0.5,0.224,0.5,0.5
				S37.3,35.022,37.023,35.022z"/>
		</g>
		<g>
			<path d="M34.478,33.045h-5.735c-0.276,0-0.5-0.224-0.5-0.5s0.224-0.5,0.5-0.5h5.735c0.276,0,0.5,0.224,0.5,0.5
				S34.754,33.045,34.478,33.045z"/>
		</g>
		<g>
			<path d="M30.801,35.022h-2.058c-0.276,0-0.5-0.224-0.5-0.5s0.224-0.5,0.5-0.5h2.058c0.276,0,0.5,0.224,0.5,0.5
				S31.077,35.022,30.801,35.022z"/>
		</g>
		<g>
			<path d="M37.023,31.07h-4.81c-0.276,0-0.5-0.224-0.5-0.5s0.224-0.5,0.5-0.5h4.81c0.276,0,0.5,0.224,0.5,0.5
				S37.3,31.07,37.023,31.07z"/>
		</g>
		<g>
			<path d="M36.995,29.078h-8.251c-0.276,0-0.5-0.224-0.5-0.5s0.224-0.5,0.5-0.5h8.251c0.276,0,0.5,0.224,0.5,0.5
				S37.271,29.078,36.995,29.078z"/>
		</g>
		<g>
			<path d="M30.801,31.07h-2.058c-0.276,0-0.5-0.224-0.5-0.5s0.224-0.5,0.5-0.5h2.058c0.276,0,0.5,0.224,0.5,0.5
				S31.077,31.07,30.801,31.07z"/>
		</g>
		<g>
			<path d="M36.956,33.045h-1.132c-0.276,0-0.5-0.224-0.5-0.5s0.224-0.5,0.5-0.5h1.132c0.276,0,0.5,0.224,0.5,0.5
				S37.232,33.045,36.956,33.045z"/>
		</g>
	</g>
	<g>
		<g>
			<path d="M21.285,21.833c-0.128,0-0.256-0.049-0.354-0.146l-5.012-5.012c-0.195-0.195-0.195-0.512,0-0.707s0.512-0.195,0.707,0
				l5.012,5.012c0.195,0.195,0.195,0.512,0,0.707C21.541,21.785,21.413,21.833,21.285,21.833z"/>
		</g>
		<g>
			<path d="M16.273,21.833c-0.128,0-0.256-0.049-0.354-0.146c-0.195-0.195-0.195-0.512,0-0.707l5.012-5.012
				c0.195-0.195,0.512-0.195,0.707,0s0.195,0.512,0,0.707l-5.012,5.012C16.529,21.785,16.401,21.833,16.273,21.833z"/>
		</g>
	</g>
	<g>
		<path d="M1.345,21.699c-0.276,0-0.5-0.224-0.5-0.5v-4.742c0-0.276,0.224-0.5,0.5-0.5s0.5,0.224,0.5,0.5v4.742
			C1.845,21.475,1.622,21.699,1.345,21.699z"/>
	</g>
	<g>
		<path d="M37.326,21.699c-0.276,0-0.5-0.224-0.5-0.5v-4.742c0-0.276,0.224-0.5,0.5-0.5s0.5,0.224,0.5,0.5v4.742
			C37.826,21.475,37.603,21.699,37.326,21.699z"/>
	</g>
	<g>
		<path d="M21.996,2.089h-4.742c-0.276,0-0.5-0.224-0.5-0.5s0.224-0.5,0.5-0.5h4.742c0.276,0,0.5,0.224,0.5,0.5
			S22.272,2.089,21.996,2.089z"/>
	</g>
	<g>
		<path d="M21.996,35.988h-4.742c-0.276,0-0.5-0.224-0.5-0.5s0.224-0.5,0.5-0.5h4.742c0.276,0,0.5,0.224,0.5,0.5
			S22.272,35.988,21.996,35.988z"/>
	</g>
</g>
</svg>
