<?xml version="1.0" encoding="iso-8859-1"?>
<!-- Generator: Adobe Illustrator 22.0.1, SVG Export Plug-In . SVG Version: 6.00 Build 0)  -->
<svg version="1.1" id="Layer_1" xmlns="http://www.w3.org/2000/svg" xmlns:xlink="http://www.w3.org/1999/xlink" x="0px" y="0px"
	 viewBox="0 0 31 30.417" style="enable-background:new 0 0 31 30.417;" xml:space="preserve">
<g>
	<g>
		<g>
			<path d="M27.5,20.583H3.833c-0.919,0-1.666-0.748-1.666-1.667V0.5c0-0.276,0.224-0.5,0.5-0.5h26c0.276,0,0.5,0.224,0.5,0.5
				v18.417C29.167,19.835,28.419,20.583,27.5,20.583z M3.167,1v17.917c0,0.368,0.299,0.667,0.666,0.667H27.5
				c0.368,0,0.667-0.299,0.667-0.667V1H3.167z"/>
		</g>
		<g>
			<path d="M30.5,1h-30C0.224,1,0,0.776,0,0.5S0.224,0,0.5,0h30C30.776,0,31,0.224,31,0.5S30.776,1,30.5,1z"/>
		</g>
		<g>
			<path d="M19,23.167h-6.5c-0.276,0-0.5-0.224-0.5-0.5s0.224-0.5,0.5-0.5H19c0.276,0,0.5,0.224,0.5,0.5S19.276,23.167,19,23.167z"
				/>
		</g>
		<g>
			<path d="M15.542,30.417c-0.276,0-0.5-0.224-0.5-0.5v-7.25c0-0.276,0.224-0.5,0.5-0.5s0.5,0.224,0.5,0.5v7.25
				C16.042,30.193,15.818,30.417,15.542,30.417z"/>
		</g>
		<g>
			<path d="M11.333,30.25c-0.129,0-0.258-0.05-0.355-0.148c-0.194-0.196-0.192-0.513,0.004-0.707l4.209-4.167
				c0.196-0.195,0.513-0.191,0.707,0.004c0.194,0.196,0.192,0.513-0.004,0.707l-4.209,4.167C11.587,30.203,11.46,30.25,11.333,30.25
				z"/>
		</g>
		<g>
			<path d="M19.833,30.25c-0.126,0-0.251-0.047-0.349-0.142l-4.291-4.167c-0.198-0.192-0.202-0.509-0.01-0.707
				c0.192-0.197,0.508-0.203,0.707-0.01l4.291,4.167c0.198,0.192,0.202,0.509,0.01,0.707C20.094,30.2,19.963,30.25,19.833,30.25z"/>
		</g>
	</g>
	<g>
		<path d="M4.96,15.629c-0.131,0-0.261-0.051-0.359-0.152c-0.192-0.198-0.187-0.515,0.012-0.707l6.142-5.945
			c0.146-0.142,0.364-0.181,0.549-0.098l6.997,3.079l8.203-6.459c0.216-0.169,0.53-0.134,0.702,0.084
			c0.171,0.217,0.134,0.531-0.083,0.702l-8.439,6.645c-0.146,0.114-0.343,0.139-0.511,0.064l-6.964-3.064l-5.9,5.711
			C5.211,15.582,5.085,15.629,4.96,15.629z"/>
	</g>
	<g>
		<path d="M5.958,7.299V7.147c-0.282-0.022-0.545-0.09-0.79-0.203C4.924,6.832,4.722,6.682,4.564,6.496
			C4.51,6.441,4.482,6.377,4.482,6.302c0-0.091,0.038-0.166,0.115-0.226c0.076-0.06,0.172-0.089,0.289-0.089
			c0.062,0,0.117,0.011,0.165,0.034C5.1,6.042,5.146,6.071,5.193,6.105C5.24,6.14,5.286,6.177,5.333,6.219s0.1,0.082,0.159,0.12
			c0.06,0.039,0.127,0.073,0.202,0.104C5.77,6.475,5.857,6.496,5.958,6.508V4.823C5.79,4.789,5.634,4.734,5.488,4.658
			C5.344,4.583,5.218,4.491,5.111,4.385C5.006,4.279,4.923,4.162,4.863,4.034c-0.06-0.128-0.09-0.262-0.09-0.401
			c0-0.142,0.029-0.277,0.086-0.406c0.057-0.129,0.137-0.247,0.241-0.353c0.104-0.106,0.228-0.198,0.372-0.275
			C5.618,2.52,5.779,2.462,5.958,2.426V2.238c0-0.091,0.038-0.166,0.115-0.226c0.076-0.06,0.173-0.089,0.289-0.089
			s0.213,0.03,0.289,0.089s0.115,0.135,0.115,0.226v0.191c0.093,0.018,0.186,0.044,0.279,0.079C7.139,2.542,7.227,2.583,7.31,2.631
			s0.16,0.102,0.231,0.162S7.672,2.919,7.722,2.99c0.018,0.026,0.032,0.053,0.043,0.079c0.01,0.026,0.015,0.056,0.015,0.091
			c0,0.091-0.038,0.166-0.114,0.226S7.492,3.475,7.376,3.475c-0.075,0-0.136-0.012-0.183-0.036C7.146,3.414,7.103,3.384,7.062,3.348
			C7.02,3.311,6.978,3.271,6.934,3.228c-0.045-0.043-0.101-0.083-0.167-0.12v1.194c0.181,0.05,0.349,0.122,0.502,0.213
			c0.154,0.092,0.287,0.198,0.398,0.318s0.198,0.251,0.261,0.394C7.989,5.37,8.021,5.517,8.021,5.669
			c0,0.157-0.029,0.309-0.087,0.455C7.875,6.269,7.791,6.403,7.683,6.525s-0.24,0.231-0.395,0.326
			C7.135,6.946,6.96,7.021,6.767,7.075v0.225c0,0.042-0.011,0.083-0.031,0.121c-0.021,0.039-0.05,0.072-0.088,0.102
			C6.61,7.551,6.566,7.574,6.518,7.59C6.469,7.606,6.417,7.614,6.362,7.614c-0.057,0-0.11-0.008-0.159-0.024
			c-0.05-0.017-0.092-0.039-0.128-0.068C6.038,7.493,6.01,7.459,5.989,7.42S5.958,7.342,5.958,7.299z M5.958,3.105
			C5.71,3.23,5.586,3.402,5.586,3.62c0,0.101,0.032,0.2,0.097,0.297c0.064,0.097,0.156,0.172,0.275,0.225V3.105z M6.767,6.366
			C6.844,6.317,6.911,6.27,6.968,6.222C7.025,6.174,7.071,6.124,7.105,6.07c0.035-0.054,0.062-0.112,0.078-0.176
			s0.025-0.136,0.025-0.217c0-0.127-0.036-0.251-0.108-0.373c-0.073-0.121-0.185-0.22-0.334-0.297V6.366z"/>
	</g>
	<g>
		<path d="M26.531,16.611h-6.562c-0.276,0-0.5-0.224-0.5-0.5c0-0.276,0.224-0.5,0.5-0.5h6.562c0.276,0,0.5,0.224,0.5,0.5
			C27.031,16.387,26.808,16.611,26.531,16.611z"/>
	</g>
	<g>
		<path d="M26.531,18.313h-6.562c-0.276,0-0.5-0.224-0.5-0.5s0.224-0.5,0.5-0.5h6.562c0.276,0,0.5,0.224,0.5,0.5
			S26.808,18.313,26.531,18.313z"/>
	</g>
	<g>
		<circle style="fill:#A7A8AC;" cx="11.102" cy="9.184" r="1.434"/>
		<path d="M11.102,11.118c-1.066,0-1.934-0.868-1.934-1.934s0.867-1.934,1.934-1.934s1.935,0.868,1.935,1.934
			S12.168,11.118,11.102,11.118z M11.102,8.25c-0.515,0-0.934,0.419-0.934,0.934s0.419,0.934,0.934,0.934
			c0.516,0,0.935-0.419,0.935-0.934S11.617,8.25,11.102,8.25z"/>
	</g>
	<g>
		<circle style="fill:#ED473E;" cx="18.399" cy="12.053" r="1.434"/>
		<path d="M18.399,13.987c-1.066,0-1.935-0.868-1.935-1.934c0-1.067,0.868-1.935,1.935-1.935s1.934,0.868,1.934,1.935
			C20.333,13.119,19.466,13.987,18.399,13.987z M18.399,11.118c-0.516,0-0.935,0.419-0.935,0.935s0.419,0.934,0.935,0.934
			c0.515,0,0.934-0.419,0.934-0.934S18.914,11.118,18.399,11.118z"/>
	</g>
	<g>
		<circle style="fill:#A7A8AC;" cx="25.587" cy="6.389" r="1.434"/>
		<path d="M25.587,8.323c-1.066,0-1.935-0.868-1.935-1.934s0.868-1.934,1.935-1.934s1.934,0.868,1.934,1.934
			S26.653,8.323,25.587,8.323z M25.587,5.455c-0.516,0-0.935,0.419-0.935,0.934s0.419,0.934,0.935,0.934
			c0.515,0,0.934-0.419,0.934-0.934S26.102,5.455,25.587,5.455z"/>
	</g>
	<g>
		<circle style="fill:#ED473E;" cx="5.618" cy="14.677" r="1.434"/>
		<path d="M5.618,16.611c-1.066,0-1.935-0.867-1.935-1.934s0.868-1.934,1.935-1.934s1.934,0.868,1.934,1.934
			S6.685,16.611,5.618,16.611z M5.618,13.743c-0.516,0-0.935,0.419-0.935,0.934s0.419,0.934,0.935,0.934
			c0.515,0,0.934-0.419,0.934-0.934S6.133,13.743,5.618,13.743z"/>
	</g>
</g>
</svg>
