<?xml version="1.0" encoding="iso-8859-1"?>
<!-- Generator: Adobe Illustrator 22.0.1, SVG Export Plug-In . SVG Version: 6.00 Build 0)  -->
<svg version="1.1" id="Layer_1" xmlns="http://www.w3.org/2000/svg" xmlns:xlink="http://www.w3.org/1999/xlink" x="0px" y="0px"
	 viewBox="0 0 42.571 31.625" style="enable-background:new 0 0 42.571 31.625;" xml:space="preserve">
<g>
	<path style="fill:#A7A8AC;" d="M41.973,29.786v1.24H24.598v-1.24c0-0.963,0.541-1.847,1.398-2.282l4.868-2.48v-2.839l-0.937-0.937
		V17.62c0-0.937,0.369-1.768,0.976-2.375c0.607-0.607,1.451-0.976,2.375-0.976c1.86,0,3.364,1.491,3.364,3.351l-0.013,3.628
		l-0.924,0.937v2.839l4.855,2.48C41.432,27.939,41.973,28.823,41.973,29.786z"/>
</g>
<g>
	<path d="M41.973,31.625c-0.331,0-0.598-0.269-0.598-0.599v-1.24c0-0.745-0.414-1.414-1.081-1.747l-4.388-2.241
		c-0.493-0.253-0.798-0.753-0.798-1.306v-1.952c0-0.388,0.149-0.753,0.421-1.029l0.426-0.432c0.049-0.05,0.077-0.118,0.077-0.188
		l0.012-3.273c0-1.516-1.241-2.75-2.766-2.75c-0.742,0-1.436,0.285-1.952,0.801c-0.516,0.517-0.801,1.209-0.801,1.952v3.27
		c0,0.07,0.029,0.14,0.078,0.188l0.429,0.43c0.277,0.277,0.429,0.646,0.429,1.036v1.949c0,0.553-0.306,1.053-0.8,1.306l-3.921,1.998
		c-0.953,0.485-1.545,1.451-1.545,2.521v0.71c0,0.33-0.268,0.599-0.598,0.599S24,31.357,24,31.027v-0.71
		c0-1.521,0.842-2.896,2.199-3.587l3.921-1.998c0.09-0.046,0.147-0.138,0.147-0.239v-1.949c0-0.07-0.029-0.141-0.08-0.19
		l-0.428-0.429c-0.272-0.271-0.429-0.649-0.429-1.035v-3.27c0-1.062,0.409-2.055,1.151-2.797c0.742-0.743,1.736-1.151,2.798-1.151
		c2.185,0,3.962,1.771,3.962,3.949l-0.012,3.276c-0.001,0.387-0.151,0.75-0.422,1.024l-0.426,0.431
		c-0.049,0.051-0.077,0.118-0.077,0.189v1.952c0,0.102,0.057,0.193,0.147,0.24l4.382,2.238c1.07,0.534,1.737,1.614,1.737,2.815v1.24
		C42.571,31.357,42.304,31.625,41.973,31.625z"/>
</g>
<g>
	<path style="fill:#ED473E;" d="M17.786,29.8v1.227H0.598V29.8c0-0.953,0.535-1.827,1.383-2.258l4.816-2.454v-2.989l-0.927-0.927
		v-3.589c0-0.927,0.365-1.749,0.966-2.349c0.6-0.6,1.436-0.966,2.349-0.966c1.84,0,3.328,1.475,3.328,3.315L12.5,21.173
		l-0.914,0.927v2.989l4.803,2.454C17.251,27.973,17.786,28.847,17.786,29.8z"/>
</g>
<g>
	<path d="M17.786,31.625c-0.331,0-0.598-0.269-0.598-0.599v-1.228c0-0.734-0.409-1.394-1.066-1.723l-4.425-2.26
		c-0.438-0.224-0.708-0.668-0.708-1.158v-2.271c0-0.345,0.133-0.669,0.375-0.913l0.51-0.518l0.042-3.375
		c0-1.496-1.225-2.714-2.73-2.714c-0.732,0-1.417,0.281-1.926,0.79c-0.51,0.51-0.791,1.194-0.791,1.926v3.299l0.546,0.589
		c0.246,0.246,0.381,0.572,0.381,0.919v2.269c0,0.491-0.272,0.935-0.709,1.158l-4.433,2.258c-0.652,0.331-1.057,0.992-1.057,1.725
		v1.228c0,0.33-0.268,0.599-0.598,0.599S0,31.357,0,31.027v-1.228c0-1.186,0.655-2.256,1.71-2.791l4.432-2.258
		c0.035-0.018,0.057-0.053,0.057-0.092V22.39l-0.546-0.589c-0.242-0.242-0.381-0.577-0.381-0.919v-3.299
		c0-1.052,0.405-2.036,1.141-2.772c0.735-0.736,1.72-1.141,2.772-1.141c2.165,0,3.926,1.755,3.926,3.913L13.1,20.888
		c-0.001,0.341-0.133,0.663-0.373,0.907l-0.512,0.52l-0.03,2.344c0,0.039,0.022,0.074,0.057,0.093l4.42,2.257
		c1.061,0.531,1.723,1.601,1.723,2.791v1.228C18.384,31.357,18.117,31.625,17.786,31.625z"/>
</g>
<g>
	<path d="M10.477,3.454H7.946c-0.276,0-0.5-0.224-0.5-0.5s0.224-0.5,0.5-0.5h2.531c0.276,0,0.5,0.224,0.5,0.5
		S10.753,3.454,10.477,3.454z"/>
</g>
<g>
	<path d="M18.204,3.454h-6.095c-0.276,0-0.5-0.224-0.5-0.5s0.224-0.5,0.5-0.5h6.095c0.276,0,0.5,0.224,0.5,0.5
		S18.48,3.454,18.204,3.454z"/>
</g>
<g>
	<path d="M14.006,5.396H7.946c-0.276,0-0.5-0.224-0.5-0.5s0.224-0.5,0.5-0.5h6.061c0.276,0,0.5,0.224,0.5,0.5
		S14.283,5.396,14.006,5.396z"/>
</g>
<g>
	<path d="M18.204,5.396h-2.599c-0.276,0-0.5-0.224-0.5-0.5s0.224-0.5,0.5-0.5h2.599c0.276,0,0.5,0.224,0.5,0.5
		S18.48,5.396,18.204,5.396z"/>
</g>
<g>
	<path d="M11.542,7.417H7.946c-0.276,0-0.5-0.224-0.5-0.5s0.224-0.5,0.5-0.5h3.596c0.276,0,0.5,0.224,0.5,0.5
		S11.818,7.417,11.542,7.417z"/>
</g>
<g>
	<path d="M18.204,7.417h-5.196c-0.276,0-0.5-0.224-0.5-0.5s0.224-0.5,0.5-0.5h5.196c0.276,0,0.5,0.224,0.5,0.5
		S18.48,7.417,18.204,7.417z"/>
</g>
<g>
	<path d="M7.313,12.833c-0.064,0-0.129-0.012-0.191-0.038c-0.187-0.077-0.309-0.26-0.309-0.462V9.792H6.141
		c-0.67,0-1.215-0.545-1.215-1.216v-7.36C4.926,0.545,5.471,0,6.141,0h13.778c0.67,0,1.216,0.545,1.216,1.216v7.36
		c0,0.67-0.545,1.216-1.216,1.216h-9.357l-2.895,2.895C7.571,12.783,7.443,12.833,7.313,12.833z M6.141,1
		C6.022,1,5.926,1.097,5.926,1.216v7.36c0,0.119,0.097,0.216,0.215,0.216h1.172c0.276,0,0.5,0.224,0.5,0.5v1.834l2.188-2.188
		c0.094-0.094,0.221-0.146,0.354-0.146h9.564c0.119,0,0.216-0.097,0.216-0.216v-7.36C20.135,1.097,20.038,1,19.919,1H6.141z"/>
</g>
<g>
	<path d="M35.795,6.385h-5.061c-0.276,0-0.5-0.224-0.5-0.5s0.224-0.5,0.5-0.5h5.061c0.276,0,0.5,0.224,0.5,0.5
		S36.071,6.385,35.795,6.385z"/>
</g>
<g>
	<path d="M29.135,6.385h-2.599c-0.276,0-0.5-0.224-0.5-0.5s0.224-0.5,0.5-0.5h2.599c0.276,0,0.5,0.224,0.5,0.5
		S29.412,6.385,29.135,6.385z"/>
</g>
<g>
	<path d="M35.795,8.405h-3.597c-0.276,0-0.5-0.224-0.5-0.5s0.224-0.5,0.5-0.5h3.597c0.276,0,0.5,0.224,0.5,0.5
		S36.071,8.405,35.795,8.405z"/>
</g>
<g>
	<path d="M30.733,8.405h-4.196c-0.276,0-0.5-0.224-0.5-0.5s0.224-0.5,0.5-0.5h4.196c0.276,0,0.5,0.224,0.5,0.5
		S31.009,8.405,30.733,8.405z"/>
</g>
<g>
	<path d="M36.428,13.822c-0.13,0-0.258-0.051-0.354-0.146l-2.895-2.895h-8.358c-0.67,0-1.215-0.545-1.215-1.216v-5.36
		c0-0.67,0.545-1.216,1.215-1.216h12.778c0.67,0,1.216,0.545,1.216,1.216v5.36c0,0.67-0.545,1.216-1.216,1.216h-0.671v2.542
		c0,0.202-0.122,0.385-0.309,0.462C36.557,13.81,36.492,13.822,36.428,13.822z M24.821,3.989c-0.119,0-0.215,0.097-0.215,0.216v5.36
		c0,0.119,0.097,0.216,0.215,0.216h8.565c0.133,0,0.26,0.053,0.354,0.146l2.188,2.188v-1.834c0-0.276,0.224-0.5,0.5-0.5h1.171
		c0.119,0,0.216-0.097,0.216-0.216v-5.36c0-0.119-0.097-0.216-0.216-0.216H24.821z"/>
</g>
</svg>
